<svg width="43" height="43" viewBox="0 0 43 43" fill="none" xmlns="http://www.w3.org/2000/svg">
<path fill-rule="evenodd" clip-rule="evenodd" d="M15.7326 15.1735C15.8577 15.2983 15.957 15.4466 16.0248 15.6099C16.0925 15.7731 16.1274 15.9481 16.1274 16.1249C16.1274 16.3016 16.0925 16.4767 16.0248 16.6399C15.957 16.8032 15.8577 16.9515 15.7326 17.0763L8.61877 24.1874L15.7326 31.2985C15.9849 31.5508 16.1267 31.8931 16.1267 32.2499C16.1267 32.6067 15.9849 32.949 15.7326 33.2013C15.4803 33.4536 15.138 33.5953 14.7812 33.5953C14.4244 33.5953 14.0822 33.4536 13.8298 33.2013L5.76734 25.1388C5.6422 25.014 5.54291 24.8657 5.47517 24.7024C5.40743 24.5392 5.37256 24.3641 5.37256 24.1874C5.37256 24.0106 5.40743 23.8356 5.47517 23.6724C5.54291 23.5091 5.6422 23.3608 5.76734 23.236L13.8298 15.1735C13.9547 15.0484 14.1029 14.9491 14.2662 14.8814C14.4294 14.8136 14.6045 14.7787 14.7812 14.7787C14.958 14.7787 15.133 14.8136 15.2962 14.8814C15.4595 14.9491 15.6078 15.0484 15.7326 15.1735Z" fill="white"/>
<path fill-rule="evenodd" clip-rule="evenodd" d="M36.2812 6.71875C36.6376 6.71875 36.9794 6.86032 37.2314 7.11233C37.4834 7.36433 37.625 7.70612 37.625 8.0625V18.8125C37.625 20.5944 36.9171 22.3034 35.6571 23.5634C34.3971 24.8234 32.6882 25.5312 30.9062 25.5312H8.0625C7.70612 25.5312 7.36433 25.3897 7.11233 25.1377C6.86032 24.8857 6.71875 24.5439 6.71875 24.1875C6.71875 23.8311 6.86032 23.4893 7.11233 23.2373C7.36433 22.9853 7.70612 22.8438 8.0625 22.8438H30.9062C31.9754 22.8438 33.0008 22.419 33.7568 21.663C34.5128 20.907 34.9375 19.8817 34.9375 18.8125V8.0625C34.9375 7.70612 35.0791 7.36433 35.3311 7.11233C35.5831 6.86032 35.9249 6.71875 36.2812 6.71875Z" fill="white"/>
</svg>
